<?xml version="1.0" standalone="no"?>
<!DOCTYPE svg PUBLIC "-//W3C//DTD SVG 1.1//EN" "http://www.w3.org/Graphics/SVG/1.1/DTD/svg11.dtd">
<svg xmlns="http://www.w3.org/2000/svg">
<metadata>Copyright (C) 2019 by original authors @ fontello.com</metadata>
<defs>
<font id="fontello" horiz-adv-x="1000" >
<font-face font-family="fontello" font-weight="400" font-stretch="normal" units-per-em="1000" ascent="850" descent="-150" />
<missing-glyph horiz-adv-x="1000" />
<glyph glyph-name="basket" unicode="&#xe800;" d="M139 76c45 0 79-35 79-79 0-43-34-78-79-78-43 0-78 35-78 78 0 44 35 79 78 79z m530 0c44 0 77-35 77-79 0-43-33-78-77-78s-79 35-79 78c0 44 35 79 79 79z m-478 588l565 0c38 0 55-22 55-50l0-233c0-27-20-48-46-50l-505-57c-41-5-46-58 3-58l478 0c55 0 55-82 0-82l-488 0c-110 0-152 122-65 185l43 33-155 339-76 0c-59 0-59 90 0 90l89 0c45 0 57-22 71-54z m345-70l-130 0 27-85 123 0z m-312 0l39-85 126 0-28 85-137 0z m109-241l100 10-33 101-119 0z m143 15l113 11-25 85-119 0z m267 29l0 67-133 0 20-78z m0 112l0 85-162 0 19-85 143 0z" horiz-adv-x="811" />

<glyph glyph-name="user" unicode="&#xe801;" d="M897-41l-895 0s-4 11 0 71c51 27 292 92 306 98l1 45 19 5s7 70 7 81c0 0-28 56-35 89 0 0-23 0-26 24-4 25 0 41-6 60-4 17 10 36 21 32 0 0-25 129 0 164 18 25 71 89 198 111 0 0 31 4 41-1 7-3 6-5-9-21 0 0 65-40 86-104 13-40 8-126 0-149 0 0 19 4 17-20-4-39-5-110-33-96 0 0-1-80-25-96 0 0-7-63 4-65l16 0s6-52 19-65c0 0 267-69 294-99 1-33 0-64 0-64z" horiz-adv-x="897" />

<glyph glyph-name="left-open-big" unicode="&#xe802;" d="M452-20q26-26 0-48-26-26-48 0l-392 394q-24 24 0 50l392 394q22 26 48 0 26-22 0-48l-358-372z" horiz-adv-x="465" />

<glyph glyph-name="right-open-big" unicode="&#xe803;" d="M13-20l358 370-358 372q-26 26 0 48 26 26 48 0l392-394q24-26 0-50l-392-394q-22-26-48 0-26 22 0 48z" horiz-adv-x="465" />
</font>
</defs>
</svg>