{
  "controllers/page-controller": {},
  "oroui/js/app": {},
  "oroui/js/app/components/base/component-container-mixin": {},
  "oroui/js/app/components/tabs-component": {},
  "oroui/js/app/plugins/styled-scroll-bar": {},
  "oroui/js/app/views/flash-message-view": {},
  "oroui/js/app/views/page/messages-view": {},
  "oroui/js/app/views/tab-collection-view": {},
  "oroui/js/app/views/tab-item-view": {},
  "oroui/js/component-shortcuts-manager": {},
  "oroui/js/css-variables-manager": {},
  "oroui/js/error": {},
  "oroui/js/extend/bootstrap/bootstrap-dropdown": {},
  "oroui/js/extend/scriptjs": {},
  "oroui/js/modal": {},
  "oroui/js/tools/highlighter/highlighter-favicon": {},
  "oroui/js/tools/highlighter/highlighter-title": {},
  "oroui/js/tools/scroll-helper": {},
  "oroui/js/viewport-manager": {},
  "orouser/js/components/role/entity-category-tabs-component": {},
  "orodatagrid/js/app/plugins/grid/datagrid-settings-plugin": {},
  "orodatagrid/js/app/plugins/grid/toolbar-mass-action-plugin": {},
  "orodatagrid/js/app/views/datagrid-settings-list/datagrid-settings-list-collection-view": {},
  "orodatagrid/js/app/views/grid/datagrid-module-manager-view": {},
  "orodatagrid/js/datagrid/action-launcher": {},
  "orodatagrid/js/datagrid/cell/action-cell": {},
  "orodatagrid/js/datagrid/dropdown-select-choice-launcher": {},
  "orodatagrid/js/datagrid/grid-views/model": {},
  "orodatagrid/js/datagrid/grid-views/view": {
    "hideSwitcherOnNoData": false
  },
  "orodatagrid/js/datagrid/sorting/dropdown": {},
  "orodatagrid/js/grid-views-builder": {},
  "orotranslation/js/translation-loader": {},
  "orotranslation/js/translator": {},
  "orolocale/js/locale-settings": {},
  "oroaddress/js/region/view": {},
  "oro/filter/abstract-filter": {},
  "oro/filter/date-filter": {},
  "oro/filter/datetime-filter": {},
  "oro/filter/select-filter": {},
  "oro/filter/text-filter": {},
  "orofilter/js/datafilter-builder": {},
  "orofilter/js/filter-hint": {},
  "orofilter/js/filters-manager": {},
  "orofilter/js/plugins/filters-toggle-plugin": {},
  "oroform/js/extend/tinymce": {},
  "oroform/js/extend/validate": {},
  "oro/dialog-widget": {},
  "orofrontend/blank/js/app/views/frontend-select-filter": {},
  "orofrontend/default/js/app/views/scroll-top-view": {},
  "orofrontend/js/app/components/frontend-datagrid-component": {},
  "orofrontend/js/app/datafilter/actions/fullscreen-filters-action": {},
  "orofrontend/js/app/datafilter/frontend-collection-filters-manager": {},
  "orofrontend/js/app/datafilter/frontend-manage-filters-decorator": {},
  "orofrontend/js/app/datafilter/frontend-multiselect-decorator": {},
  "orofrontend/js/app/datafilter/plugins/frontend-filters-plugin": {},
  "orofrontend/js/app/plugins/frontend-datagrid-settings-plugin": {},
  "orofrontend/js/app/views/datagrid-settings/frontend-datagrid-settings-column-view": {},
  "orofrontend/js/app/views/dom-relocation-view": {},
  "orofrontend/js/datagrid/cell/frontend-action-cell": {},
  "orovalidation/js/validator/greater-than-zero": {},
  "oronavigation/js/routes-loader": {},
  "oroproduct/js/app/datagrid/backend-grid": {},
  "oroproduct/js/app/datagrid/header-cell/backend-action-header-cell": {},
  "oroviewswitcher/js/app/modules/device-emulate-module": {},
  "oroviewswitcher/js/app/views/device-switcher-view": {}
}